{
  "data" : [ {
    "uuid" : null,
    "creator" : {
      "uuid" : "f04e89d0-076d-4d90-b192-715a25a2cd59",
      "name" : "joedoe"
    },
    "created" : "2018-10-12T14:15:06.024Z",
    "editor" : {
      "uuid" : "f04e89d0-076d-4d90-b192-715a25a2cd59",
      "name" : "joedoe"
    },
    "edited" : "2018-11-20T20:12:01.084Z",
    "status" : null,
    "kind" : null,
    "hashes" : {
      "sha512" : "0e3e75234abc68f4378a86b3f4b32a198ba301845b0cd6e50106e874345700cc6663a86c1ea125dc5e92be17c98f9a0f85ca9d5f595db2012f7cc3571945c123",
      "sha256" : "f2ca1bb6c7e907d06dafe4687e579fce76b37e4e93b7605022da52e6ccc26fd2",
      "md5" : "d8e8fca2dc0f896fd7cb4cb0031ba249"
    },
    "filename" : "bigbuckbunny-4k.mp4",
    "width" : 4000,
    "height" : 2250,
    "size" : 2005225,
    "mimeType" : "video/mp4",
    "dominantColor" : "#FFFF00",
    "meta" : {
      "custom" : "value"
    },
    "location" : {
      "lon" : 32.56,
      "lat" : 52.156
    },
    "tags" : [ {
      "uuid" : "f04e89d0-076d-4d90-b192-715a25a2cd59",
      "name" : "red"
    }, {
      "uuid" : "86abc160-4da2-4951-a91f-da0c33fbc634",
      "name" : "blue"
    } ],
    "duration" : 20000,
    "timeline" : [ {
      "from" : 0,
      "to" : 200,
      "thumbail" : "???",
      "meta" : {
        "custom" : "value"
      },
      "tags" : [ {
        "uuid" : "f04e89d0-076d-4d90-b192-715a25a2cd59",
        "name" : "red"
      }, {
        "uuid" : "86abc160-4da2-4951-a91f-da0c33fbc634",
        "name" : "blue"
      } ],
      "description" : "The very nice intro"
    }, {
      "from" : 200,
      "to" : 900,
      "thumbail" : "???",
      "meta" : {
        "custom" : "value"
      },
      "tags" : [ {
        "uuid" : "f04e89d0-076d-4d90-b192-715a25a2cd59",
        "name" : "red"
      }, {
        "uuid" : "86abc160-4da2-4951-a91f-da0c33fbc634",
        "name" : "blue"
      } ],
      "description" : "The main part of the movie"
    } ],
    "s3" : {
      "bucket" : "big_bucket",
      "key" : "themovie"
    },
    "localPath" : "/opt/movies/bigbuckbunny-4k.mp4"
  }, {
    "uuid" : null,
    "creator" : {
      "uuid" : "f04e89d0-076d-4d90-b192-715a25a2cd59",
      "name" : "joedoe"
    },
    "created" : "2018-10-12T14:15:06.024Z",
    "editor" : {
      "uuid" : "f04e89d0-076d-4d90-b192-715a25a2cd59",
      "name" : "joedoe"
    },
    "edited" : "2018-11-20T20:12:01.084Z",
    "status" : null,
    "kind" : null,
    "hashes" : {
      "sha512" : "0e3e75234abc68f4378a86b3f4b32a198ba301845b0cd6e50106e874345700cc6663a86c1ea125dc5e92be17c98f9a0f85ca9d5f595db2012f7cc3571945c123",
      "sha256" : "f2ca1bb6c7e907d06dafe4687e579fce76b37e4e93b7605022da52e6ccc26fd2",
      "md5" : "d8e8fca2dc0f896fd7cb4cb0031ba249"
    },
    "filename" : "bigbuckbunny-4k.mp4",
    "width" : 4000,
    "height" : 2250,
    "size" : 2005225,
    "mimeType" : "video/mp4",
    "dominantColor" : "#FFFF00",
    "meta" : {
      "custom" : "value"
    },
    "location" : {
      "lon" : 32.56,
      "lat" : 52.156
    },
    "tags" : [ {
      "uuid" : "f04e89d0-076d-4d90-b192-715a25a2cd59",
      "name" : "red"
    }, {
      "uuid" : "86abc160-4da2-4951-a91f-da0c33fbc634",
      "name" : "blue"
    } ],
    "duration" : 20000,
    "timeline" : [ {
      "from" : 0,
      "to" : 200,
      "thumbail" : "???",
      "meta" : {
        "custom" : "value"
      },
      "tags" : [ {
        "uuid" : "f04e89d0-076d-4d90-b192-715a25a2cd59",
        "name" : "red"
      }, {
        "uuid" : "86abc160-4da2-4951-a91f-da0c33fbc634",
        "name" : "blue"
      } ],
      "description" : "The very nice intro"
    }, {
      "from" : 200,
      "to" : 900,
      "thumbail" : "???",
      "meta" : {
        "custom" : "value"
      },
      "tags" : [ {
        "uuid" : "f04e89d0-076d-4d90-b192-715a25a2cd59",
        "name" : "red"
      }, {
        "uuid" : "86abc160-4da2-4951-a91f-da0c33fbc634",
        "name" : "blue"
      } ],
      "description" : "The main part of the movie"
    } ],
    "s3" : {
      "bucket" : "big_bucket",
      "key" : "themovie"
    },
    "localPath" : "/opt/movies/bigbuckbunny-4k.mp4"
  } ],
  "_metainfo" : {
    "currentPage" : 0,
    "perPage" : 2,
    "pageCount" : 14,
    "totalCount" : 28
  }
}